MATH/COSC 3570 - Spring 2024 - Data Science Overview r emo::ji('book')
…
But usually the raw data are very messy, so we need tidy the data by storing data in a consistent rectangular form (data frame in R), which is easy for modeling and analysis.

Depending on our research goal, we may just want to focus on some variables , or observations in the data, or we may want to create some variables for example, the data use feet, but we want to use meter instead. This data transformation further cleans the data, so that we can extract any information we need from data more easily and efficiently. In other words, we improve the quality of data.

Data Matrix

Each row corresponds to a unique case or observational unit.

Each column represents a characteristic or variable.

This structure allows new cases to be added as rows or new variables as new columns.

ggplot2::mpg |> print(n = 10)

# A tibble: 234 × 11
   manufacturer model      displ  year   cyl trans drv     cty   hwy fl    class
   <chr>        <chr>      <dbl> <int> <int> <chr> <chr> <int> <int> <chr> <chr>
 1 audi         a4           1.8  1999     4 auto… f        18    29 p     comp…
 2 audi         a4           1.8  1999     4 manu… f        21    29 p     comp…
 3 audi         a4           2    2008     4 manu… f        20    31 p     comp…
 4 audi         a4           2    2008     4 auto… f        21    30 p     comp…
 5 audi         a4           2.8  1999     6 auto… f        16    26 p     comp…
 6 audi         a4           2.8  1999     6 manu… f        18    26 p     comp…
 7 audi         a4           3.1  2008     6 auto… f        18    27 p     comp…
 8 audi         a4 quattro   1.8  1999     4 manu… 4        18    26 p     comp…
 9 audi         a4 quattro   1.8  1999     4 auto… 4        16    25 p     comp…
10 audi         a4 quattro   2    2008     4 manu… 4        20    28 p     comp…
# ℹ 224 more rows
…
