MATH/COSC 3570 - Spring 2024 - Data Importing r fontawesome::fa("database")
…
If you don’t want open your excel file and check its sheet names, the excel_sheets() function gives us the names of all the sheets in an Excel file.

Sheet Names

The sheet names can be passed to the sheet argument to read sheets other than the first.

excel_sheets("./data/2010_bigfive_regents.xls")

[1] "Sheet1" "Sheet2" "Sheet3"

(data_xls <- read_xls(path = "./data/2010_bigfive_regents.xls", 
                      sheet = "Sheet3", skip = 1))

# A tibble: 19 × 6
  Scores `131024` `113804` `104201` `103886` `91756`
   <dbl>    <dbl>    <dbl>    <dbl>    <dbl>   <dbl>
1     10       NA       64        8      227      34
2     11        6       83       11      217      58
3     12       23       87        7       28      67
4     13        1       54       16      230      42
5     14        3      145       18      303      57
6     15       58      151       50      192      98
7     16        1      129       13      156     125
8     17       73      214       59      163     115
# ℹ 11 more rows
…
