MATH/COSC 3570 - Spring 2024 - Data Visualization – ggplot2 r emo::ji('bar_chart')
…
Data: the data input of ggplot2 is always a data frame, not a vector, or matrix.

Geometry: defines what kind of plot we are going to make.

Aesthetic mapping: basically tell ggplot2 how we decorate the plot and make it more visible or more informative. For example, use different point colors or sizes for different categories, such male and female

Structure of the code for ggplots can be summarized as the following code.

mpg Data

ggplot2::mpg

# A tibble: 234 × 11
  manufacturer model      displ  year   cyl trans  drv     cty   hwy fl    class
  <chr>        <chr>      <dbl> <int> <int> <chr>  <chr> <int> <int> <chr> <chr>
1 audi         a4           1.8  1999     4 auto(… f        18    29 p     comp…
2 audi         a4           1.8  1999     4 manua… f        21    29 p     comp…
3 audi         a4           2    2008     4 manua… f        20    31 p     comp…
4 audi         a4           2    2008     4 auto(… f        21    30 p     comp…
5 audi         a4           2.8  1999     6 auto(… f        16    26 p     comp…
6 audi         a4           2.8  1999     6 manua… f        18    26 p     comp…
7 audi         a4           3.1  2008     6 auto(… f        18    27 p     comp…
8 audi         a4 quattro   1.8  1999     4 manua… 4        18    26 p     comp…
# ℹ 226 more rows
…
