MATH/COSC 3570 - Spring 2024 - Data Wrangling - one data frame r emo::ji('hammer_and_wrench')
…
So there are four rules of dplyr functions.

First argument is always a data frame

Subsequent arguments say what to do with that data frame

Always return a data frame, so data frame in, data frame out.

Don’t modify in place, meaning that when we apply a function of dplyr to the data, we are not changing that data frame. We have option to re-save our result, either overwrite the existing data frame that we have or as a separate object, but we are not modifying the data frame in place.

Data: US gun murders by state for 2010

(murders <- read_csv("./data/murders.csv"))

# A tibble: 51 × 5
  state      abb   region population total
  <chr>      <chr> <chr>       <dbl> <dbl>
1 Alabama    AL    South     4779736   135
2 Alaska     AK    West       710231    19
3 Arizona    AZ    West      6392017   232
4 Arkansas   AR    South     2915918    93
5 California CA    West     37253956  1257
6 Colorado   CO    West      5029196    65
# ℹ 45 more rows
…
And we can change its data type to modern tibble data frame, again use as_tibble() function.

Adding a New Variable (Column) with mutate()

dplyr::mutate() takes

a data frame as the 1st argument

the name and values of the variable as the 2nd argument using format name = values.

(murders <- murders |>  
     mutate(rate = total / population * 100000)) #<<

# A tibble: 51 × 6
  state      abb   region population total  rate
  <chr>      <chr> <chr>       <dbl> <dbl> <dbl>
1 Alabama    AL    South     4779736   135  2.82
2 Alaska     AK    West       710231    19  2.68
3 Arizona    AZ    West      6392017   232  3.63
4 Arkansas   AR    South     2915918    93  3.19
5 California CA    West     37253956  1257  3.37
6 Colorado   CO    West      5029196    65  1.29
# ℹ 45 more rows
…
Selecting Columns with select()

In dplyr::select(), the 1st argument is a data frame, followed by variable names being selected in the data.

The order of variable names matters!

names(murders)

[1] "state"      "abb"        "region"     "population" "total"     
[6] "rate"      

# select three columns, assign this to a new object
murders |> select(region, rate, state)

# A tibble: 51 × 3
  region  rate state     
  <chr>  <dbl> <chr>     
1 South   2.82 Alabama   
2 West    2.68 Alaska    
3 West    3.63 Arizona   
4 South   3.19 Arkansas  
5 West    3.37 California
6 West    1.29 Colorado  
# ℹ 45 more rows
…
Here, I select three columns region, rate, and state.

Notice that the order of variable names matters! The original data set has variable order “state” “abb” “region” “population” “total” “rate”.

But the resulting data frame will have the variables or columns ordered as region, rate, state because this is the order you specify in the select().

If you don’t know the column names, you can select by position. murders_tbl %>% select(3, 6, 1)

select() to Exclude Variables

## exclude variable population
murders |> select(-population)

# A tibble: 51 × 5
  state      abb   region total  rate
  <chr>      <chr> <chr>  <dbl> <dbl>
1 Alabama    AL    South    135  2.82
2 Alaska     AK    West      19  2.68
3 Arizona    AZ    West     232  3.63
4 Arkansas   AR    South     93  3.19
5 California CA    West    1257  3.37
6 Colorado   CO    West      65  1.29
# ℹ 45 more rows
If you want to exclude some variables, just provide a vector of variables you want to remove, and put a minus sign in front of it.

Here we remove the population variable.

select() a Range of Variables

names(murders)

[1] "state"      "abb"        "region"     "population" "total"     
[6] "rate"      

## from region to rate
murders |> select(region:rate)

# A tibble: 51 × 4
  region population total  rate
  <chr>       <dbl> <dbl> <dbl>
1 South     4779736   135  2.82
2 West       710231    19  2.68
3 West      6392017   232  3.63
4 South     2915918    93  3.19
5 West     37253956  1257  3.37
6 West      5029196    65  1.29
# ℹ 45 more rows

We can also select a range of variables.

For example, we select all variables for region to rate by using region:rate, just as we create a sequence of numbers from 1 to 5 using 1:5.

murders_tbl %>% select(3:6)

select() Variables with Certain Characteristics

starts_with() is a tidy-select helper function.

murders |> select(starts_with("r"))

# A tibble: 51 × 2
  region  rate
  <chr>  <dbl>
1 South   2.82
2 West    2.68
3 West    3.63
4 South   3.19
5 West    3.37
6 West    1.29
# ℹ 45 more rows

We can also some helper functions to select variables with some condition.

For example, we can use a helper function starts_with() to select variables whose name starts with letter “r”.

And so region and rate variables are selected.

select() Variables with Certain Characteristics

ends_with() is a tidy-select helper function.

murders |> select(ends_with("ion"))

# A tibble: 51 × 2
  region population
  <chr>       <dbl>
1 South     4779736
2 West       710231
3 West      6392017
4 South     2915918
5 West     37253956
6 West      5029196
# ℹ 45 more rows
…
pull() accesses values or extract a single column in a data frame.

rate_num <- rate_df |>  
    pull()
class(rate_num)

[1] "numeric"

rep(rate_num, 3)

[1] 3.03 3.03 3.03

murders |> select(total)

# A tibble: 51 × 1
  total
  <dbl>
1   135
2    19
3   232
4    93
5  1257
6    65
# ℹ 45 more rows
…
murders_tbl[“total”]: tibble

murders_tbl %>% select(total): tibble

murders_tbl[[“total”]]: vector

murders_tbl %>% pull(total): vector

Grouping – group_by()

(heights_group <- heights |> 
     group_by(sex))  #<<

# A tibble: 1,050 × 2
# Groups:   sex [2]
  sex    height
  <chr>   <dbl>
1 Male       75
2 Male       70
3 Male       68
4 Male       74
5 Male       61
6 Female     65
# ℹ 1,044 more rows
…
Another example is that we first group the murders data by region, then when we compute the median murder rate, it will get the median murder rate for each region.

This is quite helpful when we want to explore the relationship between numerical and categorical variables. Like here, we discover that the murder rate in the south is the highest.

You can absolutely include some statistics summary in your project proposal when you describe your data.

Sorting Rows in Data Frames – arrange()

arrange() orders entire data tables.

## order the states by population size
murders |>  
    arrange(population)

# A tibble: 51 × 6
  state                abb   region        population total   rate
  <chr>                <chr> <chr>              <dbl> <dbl>  <dbl>
1 Wyoming              WY    West              563626     5  0.887
2 District of Columbia DC    South             601723    99 16.5  
3 Vermont              VT    Northeast         625741     2  0.320
4 North Dakota         ND    North Central     672591     4  0.595
5 Alaska               AK    West              710231    19  2.68 
6 South Dakota         SD    North Central     814180     8  0.983
# ℹ 45 more rows
…
If we want to sort the observations of murders data set by population size, we just need to pipe the data set into arrange function and specify population variable.

How do we do the same thing with base R grammar, not tidyverse grammar?

murders[order(murders$population), ]

Sorting Rows in Data Frames – arrange()

The function desc() transforms a vector so that it is in descending order.

## see the states by murder rate, from highest to lowest
murders |> 
    arrange(desc(rate))

# A tibble: 51 × 6
  state                abb   region        population total  rate
  <chr>                <chr> <chr>              <dbl> <dbl> <dbl>
1 District of Columbia DC    South             601723    99 16.5 
2 Louisiana            LA    South            4533372   351  7.74
3 Missouri             MO    North Central    5988927   321  5.36
4 Maryland             MD    South            5773552   293  5.07
5 South Carolina       SC    South            4625364   207  4.48
6 Delaware             DE    South             897934    38  4.23
# ℹ 45 more rows
…
