MATH/COSC 3570 - Spring 2024 - Data Wrangling - two data frames r emo::ji('hammer_and_wrench')
…
diamond_color <- readr::read_csv("the url")

Use left_join() to combine the data set diamonds in ggplot2 and diamond_color by the key variable color.

Select the variables carat, color, Description, Details.

## Variable "color" in diamonds but "Color" in diamond_color

joined_df <- diamonds |>  
    _______(_______, by = c('color' = 'Color')) |>  ## join
    _______(_________________________________________)  ## select

Create a bar chart of the variable color.

# A tibble: 53,940 × 4
  carat color Description    Details                  
  <dbl> <chr> <chr>          <chr>                    
1  0.23 E     Colorless      Minute traces of color   
2  0.21 E     Colorless      Minute traces of color   
3  0.23 E     Colorless      Minute traces of color   
4  0.29 I     Near Colorless Slightly detectable color
5  0.31 J     Near Colorless Slightly detectable color
6  0.24 J     Near Colorless Slightly detectable color
# ℹ 53,934 more rows
…
