MATH/COSC 3570 - Spring 2024 - Linear Regression r fontawesome::fa("chart-line")
…
Models with Categorical Predictors

Categorical Predictor with 2 Categories

mpg |>  
  select(hwy, trans) |>  
  print(n = 4)

# A tibble: 234 × 2
    hwy trans     
  <int> <chr>     
1    29 auto(l5)  
2    29 manual(m5)
3    31 manual(m6)
4    30 auto(av)  
# ℹ 230 more rows

mpg_new <- mpg
mpg_new$trans[grepl("auto", mpg_new$trans)] <- "auto"
mpg_new$trans[grepl("manual", mpg_new$trans)] <- "manual"

mpg_new |> 
    select(hwy, trans) |> 
    print(n = 4)

# A tibble: 234 × 2
    hwy trans 
  <int> <chr> 
1    29 auto  
2    29 manual
3    31 manual
4    30 auto  
# ℹ 230 more rows
…
