MATH/COSC 3570 - Spring 2024 - Data Splitting and K-Nearest Neighbors r fontawesome::fa("people-group")
…
[1] 240   4

dim(df_tst)

[1] 60  4

names(df_split)

df_split$in_id |> head()

body Data

df_trn

# A tibble: 240 × 4
  GENDER HEIGHT WAIST   BMI
  <fct>   <dbl> <dbl> <dbl>
1 1        185. 115    30.2
2 1        171.  78    22.2
3 0        155. 104.   30.4
4 0        156. 132.   47.2
5 0        157.  90.5  24.6
6 0        170. 134.   36.7
# ℹ 234 more rows

df_tst

# A tibble: 60 × 4
  GENDER HEIGHT WAIST   BMI
  <fct>   <dbl> <dbl> <dbl>
1 0        172  120.   33.3
2 1        166.  95    25.8
3 1        181. 119.   37.4
4 0        164   75.5  19.3
5 1        181.  92.5  27.4
6 0        156. 110    33.6
# ℹ 54 more rows
…
